{
  "project_info": {
    "project_number": "794517887905",
    "project_id": "flutter-chat-98004",
    "storage_bucket": "flutter-chat-98004.appspot.com"
  },
  "client": [
    {
      "client_info": {
        "mobilesdk_app_id": "1:794517887905:android:4702bcc44fcf4b931889e0",
        "android_client_info": {
          "package_name": "com.example.flutter_chat"
        }
      },
      "oauth_client": [
        {
          "client_id": "794517887905-u8ih0p24qk3bh7519jmrlcvtvbifd19s.apps.googleusercontent.com",
          "client_type": 3
        }
      ],
      "api_key": [
        {
          "current_key": "AIzaSyCDz0aI9QivOjEw3bEfuhwkyK4iATCOLw0"
        }
      ],
      "services": {
        "appinvite_service": {
          "other_platform_oauth_client": [
            {
              "client_id": "794517887905-u8ih0p24qk3bh7519jmrlcvtvbifd19s.apps.googleusercontent.com",
              "client_type": 3
            }
          ]
        }
      }
    }
  ],
  "configuration_version": "1"
}